﻿1,2,323,66000,0.00016,10
2,3,323,66000,0.00016,20
3,4,323,66000,0.00016,30
4,5,512,66000,0.00006,40
5,0,512,66000,0.00006,50
6,7,323,66000,0.00016,10
7,8,323,66000,0.00016,20
8,9,323,66000,0.00016,30
9,10,512,66000,0.00006,40
10,0,512,66000,0.00006,50
11,12,323,66000,0.00016,10
12,13,323,66000,0.00016,20
13,14,323,66000,0.00016,30
14,15,512,66000,0.00006,40
15,0,512,66000,0.00006,50
16,17,323,66000,0.00016,10
17,18,323,66000,0.00016,20
18,19,323,66000,0.00016,30
19,20,512,66000,0.00006,40
20,0,512,66000,0.00006,50
21,22,323,66000,0.00016,10
22,23,323,66000,0.00016,20
23,24,323,66000,0.00016,30
24,25,512,66000,0.00006,40
25,0,512,66000,0.00006,50
26,27,323,66000,0.00016,10
27,28,323,66000,0.00016,20
28,29,323,66000,0.00016,30
29,30,512,66000,0.00006,40
30,0,512,66000,0.00006,50
31,32,323,66000,0.00016,10
32,33,323,66000,0.00016,20
33,34,323,66000,0.00016,30
34,35,512,66000,0.00006,40
35,0,512,66000,0.00006,50
36,37,323,66000,0.00016,10
37,38,323,66000,0.00016,20
38,39,323,66000,0.00016,30
39,40,512,66000,0.00006,40
40,0,512,66000,0.00006,50
41,42,323,66000,0.00016,10
42,43,323,66000,0.00016,20
43,44,323,66000,0.00016,30
44,45,512,66000,0.00006,40
45,0,512,66000,0.00006,50
46,47,323,66000,0.00016,10
47,48,323,66000,0.00016,20
48,49,323,66000,0.00016,30
49,50,512,66000,0.00006,40
50,0,512,66000,0.00006,50