iteration_id,cable_loss_cost,cable_initial_cost,cable_crossing_count,cable_cost,cumulative_penalty
0,1,28140883.27066115,54273600,4.0,82414483.27066115,0.0
1,1,33039005.59710743,61643700,20.0,94682705.59710743,0.0
2,1,30616202.71487603,59371200,20.0,89987402.71487603,0.0
3,1,32215046.150826443,60181200,24.0,92396246.15082644,0.0
4,1,38687977.11570247,63571500,28.0,102259477.11570248,0.0
5,1,41776554.47727271,66978000,28.0,108754554.47727272,0.0
6,1,56778609.21694215,76576500,24.0,133355109.21694215,0.0
7,1,49801953.36570246,71657100,20.0,121459053.36570245,0.0
8,1,41165837.68388429,64001700,24.0,105167537.6838843,0.0
9,1,34713129.830578506,58579200,24.0,93292329.8305785,0.0
10,1,30290780.026859507,56206800,20.0,86497580.0268595,0.0
11,1,30365849.064049583,56158200,20.0,86524049.06404959,0.0
12,1,30932837.349173553,60954300,24.0,91887137.34917355,0.0
13,1,34456688.07024792,59517900,20.0,93974588.07024792,0.0
14,1,37920663.55785124,62615700,24.0,100536363.55785124,0.0
15,1,42000808.667355366,65990700,24.0,107991508.66735536,0.0
16,1,50615536.55578511,71067600,32.0,121683136.55578512,0.0
17,1,53406008.31198345,72643500,40.0,126049508.31198345,0.0
18,1,40982929.6983471,71639100,20.0,112622029.69834709,0.0
19,1,44158487.615702465,65329200,20.0,109487687.61570247,0.0
20,1,36757411.12190082,62302500,28.0,99059911.12190083,0.0
21,1,34162341.2107438,61231500,28.0,95393841.2107438,0.0
22,1,32883997.03512396,56769300,24.0,89653297.03512396,0.0
23,1,33891446.80785124,56139300,24.0,90030746.80785124,0.0
24,1,40404082.83471075,62712000,24.0,103116082.83471075,0.0
25,1,40373642.28719008,62886600,24.0,103260242.28719008,0.0
