iteration_id,cable_loss_cost,cable_initial_cost,cable_crossing_count,cable_cost,cumulative_penalty
1,1,82273005.99173549,110069100,32.0,192342105.9917355,0.0
2,1,74013976.63636363,105164100,28.0,179178076.63636363,0.0
