iteration_id,cable_loss_cost,cable_initial_cost,cable_crossing_count,cable_cost,cumulative_penalty
1,1,4399993.631044248,103445534,12.0,107845527.63104425,0.0
1,2,4399993.631044248,103445534,12.0,107845527.63104425,96000.0
1,3,4399993.631044248,103445534,12.0,107845527.63104425,192000.0
1,4,4399993.631044248,103445534,12.0,107845527.63104425,288000.0
1,5,4399993.631044248,103445534,12.0,107845527.63104425,384000.0
1,6,4399993.631044248,103445534,12.0,107845527.63104425,480000.0
1,7,4399993.631044248,103445534,12.0,107845527.63104425,576000.0
1,8,4399993.631044248,103445534,12.0,107845527.63104425,672000.0
1,9,4399993.631044248,103445534,12.0,107845527.63104425,768000.0
1,10,4399993.631044248,103445534,12.0,107845527.63104425,864000.0
1,11,4399993.631044248,103445534,12.0,107845527.63104425,960000.0
1,12,4399993.631044248,103445534,12.0,107845527.63104425,1056000.0
1,13,4076765.126377424,101781175,4.0,105857940.12637742,1152000.0
1,14,4076765.126377424,101781175,4.0,105857940.12637742,1248000.0
1,15,4076765.126377424,101781175,4.0,105857940.12637742,1344000.0
1,16,4076765.126377424,101781175,4.0,105857940.12637742,1440000.0
1,17,4076765.126377424,101781175,4.0,105857940.12637742,1536000.0
1,18,4076765.126377424,101781175,4.0,105857940.12637742,1632000.0
1,19,4076765.126377424,101781175,4.0,105857940.12637742,1728000.0
1,20,4076765.126377424,101781175,4.0,105857940.12637742,1824000.0
