iteration_id,cable_loss_cost,cable_initial_cost,cable_crossing_count,cable_cost,cumulative_penalty
1,1,1874139.0516171749,331506810,4.0,333380949.05161715,0.0
1,2,1874139.0516171749,331506810,4.0,333380949.05161715,4036600.0
