iteration_id,cable_loss_cost,cable_initial_cost,cable_crossing_count,cable_cost,cumulative_penalty
1,1,1874139.0516171749,331506810,4.0,333380949.05161715,0.0
1,2,1874139.0516171749,331506810,4.0,333380949.05161715,4000000.0
1,3,1851869.9379238293,332163702,4.0,334015571.93792385,8000000.0
1,4,1851869.9379238293,332163702,4.0,334015571.93792385,12000000.0
1,5,1821084.3828454167,335604078,8.0,337425162.3828454,16000000.0
1,6,1987416.8945220422,343898298,12.0,345885714.8945221,24000000.0
1,7,1849120.055313791,328370598,0.0,330219718.05531377,36000000.0
1,8,1849120.055313791,328370598,0.0,330219718.05531377,36000000.0
1,9,1849120.055313791,328370598,0.0,330219718.05531377,36000000.0
1,10,1849120.055313791,328370598,0.0,330219718.05531377,36000000.0
1,11,1849120.055313791,328370598,0.0,330219718.05531377,36000000.0
1,12,1849120.055313791,328370598,0.0,330219718.05531377,36000000.0
1,13,1849120.055313791,328370598,0.0,330219718.05531377,36000000.0
