iteration_id,cable_loss_cost,cable_initial_cost,cable_crossing_count,cable_cost,cumulative_penalty
1,1,3231603.818181818,7029000,8.0,10260603.818181818,0.0
1,2,3231603.818181818,7029000,8.0,10260603.818181818,8000000.0
1,3,2974079.7272727275,7121700,12.0,10095779.727272727,16000000.0
1,4,2974079.7272727275,7121700,12.0,10095779.727272727,28000000.0
1,5,3471363.5702479337,7031700,4.0,10503063.570247933,40000000.0
1,6,3471363.5702479337,7031700,4.0,10503063.570247933,44000000.0
1,7,3494610.1487603313,7042500,8.0,10537110.148760332,48000000.0
1,8,3494610.1487603313,7042500,8.0,10537110.148760332,56000000.0
1,9,3545338.5123966914,6958800,4.0,10504138.512396691,64000000.0
1,10,3545338.5123966914,6958800,4.0,10504138.512396691,68000000.0
1,11,3698064.768595041,7086600,4.0,10784664.76859504,72000000.0
1,12,3698064.768595041,7086600,4.0,10784664.76859504,76000000.0
1,13,3600984.4214876033,6986700,0.0,10587684.421487603,80000000.0
1,14,3600984.4214876033,6986700,0.0,10587684.421487603,80000000.0
1,15,3600984.4214876033,6986700,0.0,10587684.421487603,80000000.0
1,16,3600984.4214876033,6986700,0.0,10587684.421487603,80000000.0
1,17,3600984.4214876033,6986700,0.0,10587684.421487603,80000000.0
1,18,3600984.4214876033,6986700,0.0,10587684.421487603,80000000.0
1,19,3600984.4214876033,6986700,0.0,10587684.421487603,80000000.0
1,20,3600984.4214876033,6986700,0.0,10587684.421487603,80000000.0
