iteration_id,cable_loss_cost,cable_initial_cost,cable_crossing_count,cable_cost,cumulative_penalty
1,1,4399993.631044248,103445534,12.0,107845527.63104425,0.0
1,2,4399993.631044248,103445534,12.0,107845527.63104425,120000.0
1,3,4399993.631044248,103445534,12.0,107845527.63104425,240000.0
1,4,4132821.8748607654,104079672,0.0,108212493.87486076,360000.0
1,5,4132821.8748607654,104079672,0.0,108212493.87486076,360000.0
1,6,4132821.8748607654,104079672,0.0,108212493.87486076,360000.0
1,7,4132821.8748607654,104079672,0.0,108212493.87486076,360000.0
1,8,4132821.8748607654,104079672,0.0,108212493.87486076,360000.0
1,9,4132821.8748607654,104079672,0.0,108212493.87486076,360000.0
1,10,4132821.8748607654,104079672,0.0,108212493.87486076,360000.0
1,11,4132821.8748607654,104079672,0.0,108212493.87486076,360000.0
1,12,4132821.8748607654,104079672,0.0,108212493.87486076,360000.0
1,13,4132821.8748607654,104079672,0.0,108212493.87486076,360000.0
1,14,4132821.8748607654,104079672,0.0,108212493.87486076,360000.0
1,15,4132821.8748607654,104079672,0.0,108212493.87486076,360000.0
1,16,4132821.8748607654,104079672,0.0,108212493.87486076,360000.0
