iteration_id,cable_loss_cost,cable_initial_cost,cable_crossing_count,cable_cost,cumulative_penalty
2,1,2418753.1628527143,373936410,20.0,376355163.1628527,0.0
2,2,2418753.1628527143,373936410,20.0,376355163.1628527,20000000.0
2,3,2304592.5266141803,369427626,20.0,371732218.5266142,40000000.0
2,4,1968554.636747702,328738662,8.0,330707216.6367477,60000000.0
2,5,2169099.1149702766,362383290,12.0,364552389.11497027,68000000.0
2,6,2170125.3156598336,363594834,4.0,365764959.3156598,80000000.0
2,7,1977036.1575103935,342408150,4.0,344385186.1575104,84000000.0
2,8,1977036.1575103935,342408150,4.0,344385186.1575104,88000000.0
2,9,2046241.3813269173,337611816,8.0,339658057.3813269,92000000.0
2,10,2046241.3813269173,337611816,8.0,339658057.3813269,100000000.0
2,11,1966071.0820843189,329983434,4.0,331949505.0820843,108000000.0
2,12,1864078.6531147882,330912540,4.0,332776618.6531148,112000000.0
2,13,1864078.6531147882,330912540,4.0,332776618.6531148,116000000.0
2,14,1887239.4066994684,332490870,4.0,334378109.4066995,120000000.0
2,15,1887239.4066994684,332490870,4.0,334378109.4066995,124000000.0
2,16,2052907.0297260543,362787138,28.0,364840045.029726,128000000.0
2,17,2052907.0297260543,362787138,28.0,364840045.029726,156000000.0
2,18,2274134.294169506,354533814,12.0,356807948.2941695,184000000.0
2,19,2207449.8736802326,348790482,12.0,350997931.87368023,196000000.0
2,20,1960001.8779153642,337554306,16.0,339514307.8779154,208000000.0
3,1,2428993.2861582604,368571366,20.0,371000359.28615826,0.0
3,2,2428993.2861582604,368571366,20.0,371000359.28615826,20000000.0
3,3,2443129.15409608,360838188,4.0,363281317.15409607,40000000.0
3,4,2556039.6320535517,383057496,16.0,385613535.63205355,44000000.0
3,5,2515919.5618098765,378328896,8.0,380844815.5618099,60000000.0
