iteration_id,cable_loss_cost,cable_initial_cost,cable_crossing_count,cable_cost,cumulative_penalty
1,1,3231603.818181818,11347930,8.0,14579533.818181818,0.0
1,2,3231603.818181818,11347930,8.0,14579533.818181818,8372000.0
1,3,3141370.3884297516,11189553,4.0,14330923.388429752,16744000.0
1,4,3135511.6859504133,11009381,0.0,14144892.685950413,21122000.0
