iteration_id,cable_loss_cost,cable_initial_cost,cable_crossing_count,cable_cost,cumulative_penalty
1,113047800000,103240000000,204.0,216287800000,0.0
2,113047800000,103240000000,204.0,216287800000,100740000.0
3,110923500000,101300000000,208.0,212223500000,201480000.0
4,110923500000,101300000000,208.0,212223500000,304410000.0
5,110923500000,101300000000,208.0,212223500000,407340000.0
6,110923500000,101300000000,208.0,212223500000,510270000.0
7,113047800000,103240000000,204.0,216287800000,613200000.0
8,113047800000,103240000000,204.0,216287800000,713940000.0
9,113047800000,103240000000,204.0,216287800000,814680000.0
10,110923500000,101300000000,208.0,212223500000,915420000.0
11,110923500000,101300000000,208.0,212223500000,1018350000.0
12,110923500000,101300000000,208.0,212223500000,1121280000.0
13,110923500000,101300000000,208.0,212223500000,1224210000.0
14,113047800000,103240000000,204.0,216287800000,1327140000.0
15,113047800000,103240000000,204.0,216287800000,1427880000.0
16,113047800000,103240000000,204.0,216287800000,1528620000.0
17,110923500000,101300000000,208.0,212223500000,1629360000.0
18,110923500000,101300000000,208.0,212223500000,1732290000.0
19,110923500000,101300000000,208.0,212223500000,1835220000.0
20,110923500000,101300000000,208.0,212223500000,1938150000.0
21,113047800000,103240000000,204.0,216287800000,2041080000.0
22,113047800000,103240000000,204.0,216287800000,2141820000.0
23,113047800000,103240000000,204.0,216287800000,2242560000.0
24,110923500000,101300000000,208.0,212223500000,2343300000.0
25,110923500000,101300000000,208.0,212223500000,2446230000.0
26,110923500000,101300000000,208.0,212223500000,2549160000.0
27,110923500000,101300000000,208.0,212223500000,2652090000.0
28,113047800000,103240000000,204.0,216287800000,2755020000.0
29,113047800000,103240000000,204.0,216287800000,2855760000.0
30,113047800000,103240000000,204.0,216287800000,2956500000.0
31,110923500000,101300000000,208.0,212223500000,3057240000.0
32,110923500000,101300000000,208.0,212223500000,3160170000.0
33,110923500000,101300000000,208.0,212223500000,3263100000.0
34,110923500000,101300000000,208.0,212223500000,3366030000.0
35,113047800000,103240000000,204.0,216287800000,3468960000.0
36,113047800000,103240000000,204.0,216287800000,3569700000.0
37,113047800000,103240000000,204.0,216287800000,3670440000.0
38,110923500000,101300000000,208.0,212223500000,3771180000.0
39,110923500000,101300000000,208.0,212223500000,3874110000.0
40,110923500000,101300000000,208.0,212223500000,3977040000.0
41,110923500000,101300000000,208.0,212223500000,4079970000.0
42,113047800000,103240000000,204.0,216287800000,4182900000.0
43,113047800000,103240000000,204.0,216287800000,4283640000.0
44,113047800000,103240000000,204.0,216287800000,4384380000.0
45,110923500000,101300000000,208.0,212223500000,4485120000.0
46,110923500000,101300000000,208.0,212223500000,4588050000.0
47,110923500000,101300000000,208.0,212223500000,4690980000.0
48,110923500000,101300000000,208.0,212223500000,4793910000.0
49,113047800000,103240000000,204.0,216287800000,4896840000.0
50,113047800000,103240000000,204.0,216287800000,4997580000.0
51,113047800000,103240000000,204.0,216287800000,5098320000.0
52,110923500000,101300000000,208.0,212223500000,5199060000.0
53,111252000000,101600000000,208.0,212852000000,5301990000.0
54,111252000000,101600000000,208.0,212852000000,5402730000.0
55,111252000000,101600000000,208.0,212852000000,5503470000.0
56,113047800000,103240000000,204.0,216287800000,5604210000.0
57,113047800000,103240000000,204.0,216287800000,5704950000.0
58,113376300000,103540000000,204.0,216916300000,5805690000.0
59,111252000000,101600000000,208.0,212852000000,5906430000.0
60,111252000000,101600000000,208.0,212852000000,6007170000.0
61,110923500000,101300000000,208.0,212223500000,6107910000.0
62,110923500000,101300000000,208.0,212223500000,6210840000.0
63,113047800000,103240000000,204.0,216287800000,6313770000.0
64,113376300000,103540000000,204.0,216916300000,6414510000.0
65,113376300000,103540000000,204.0,216916300000,6515250000.0
66,111252000000,101600000000,208.0,212852000000,6615990000.0
67,110923500000,101300000000,208.0,212223500000,6716730000.0
68,110923500000,101300000000,208.0,212223500000,6819660000.0
69,110923500000,101300000000,208.0,212223500000,6922590000.0
70,113047800000,103240000000,204.0,216287800000,7025520000.0
71,113376300000,103540000000,204.0,216916300000,7126260000.0
72,113376300000,103540000000,204.0,216916300000,7227000000.0
73,111252000000,101600000000,208.0,212852000000,7327740000.0
74,110923500000,101300000000,208.0,212223500000,7428480000.0
75,110923500000,101300000000,208.0,212223500000,7531410000.0
76,110923500000,101300000000,208.0,212223500000,7634340000.0
77,113376300000,103540000000,204.0,216916300000,7737270000.0
78,113376300000,103540000000,204.0,216916300000,7838010000.0
79,113376300000,103540000000,204.0,216916300000,7938750000.0
80,110923500000,101300000000,208.0,212223500000,8039490000.0
81,110923500000,101300000000,208.0,212223500000,8142420000.0
82,108492600000,99080000000,204.0,207572600000,8245350000.0
83,108821100000,99380000000,204.0,208201100000,8350470000.0
84,108821100000,99380000000,204.0,208201100000,8451210000.0
85,108821100000,99380000000,204.0,208201100000,8551950000.0
86,108492600000,99080000000,204.0,207572600000,8652690000.0
87,110923500000,101300000000,208.0,212223500000,8757810000.0
88,110923500000,101300000000,208.0,212223500000,8860740000.0
89,108821100000,99380000000,204.0,208201100000,8963670000.0
90,108821100000,99380000000,204.0,208201100000,9064410000.0
91,108821100000,99380000000,204.0,208201100000,9165150000.0
92,108821100000,99380000000,204.0,208201100000,9265890000.0
93,108492600000,99080000000,204.0,207572600000,9366630000.0
94,110923500000,101300000000,208.0,212223500000,9471750000.0
95,110923500000,101300000000,208.0,212223500000,9574680000.0
96,108821100000,99380000000,204.0,208201100000,9677610000.0
97,113376300000,103540000000,204.0,216916300000,9778350000.0
98,108821100000,99380000000,204.0,208201100000,9879090000.0
99,108492600000,99080000000,204.0,207572600000,9979830000.0
100,108492600000,99080000000,204.0,207572600000,10084950000.0
101,108492600000,99080000000,204.0,207572600000,10190070000.0
102,108821100000,99380000000,204.0,208201100000,10295190000.0
103,111252000000,101600000000,208.0,212852000000,10395930000.0
104,111252000000,101600000000,208.0,212852000000,10496670000.0
105,108492600000,99080000000,204.0,207572600000,10597410000.0
106,108492600000,99080000000,204.0,207572600000,10702530000.0
107,108492600000,99080000000,204.0,207572600000,10807650000.0
108,108821100000,99380000000,204.0,208201100000,10912770000.0
109,108821100000,99380000000,204.0,208201100000,11013510000.0
110,111252000000,101600000000,208.0,212852000000,11114250000.0
111,111252000000,101600000000,208.0,212852000000,11214990000.0
112,108492600000,99080000000,204.0,207572600000,11315730000.0
113,108492600000,99080000000,204.0,207572600000,11420850000.0
114,108492600000,99080000000,204.0,207572600000,11525970000.0
115,108821100000,99380000000,204.0,208201100000,11631090000.0
116,108821100000,99380000000,204.0,208201100000,11731830000.0
117,111252000000,101600000000,208.0,212852000000,11832570000.0
118,110923500000,101300000000,208.0,212223500000,11933310000.0
119,108492600000,99080000000,204.0,207572600000,12036240000.0
120,108492600000,99080000000,204.0,207572600000,12141360000.0
121,108821100000,99380000000,204.0,208201100000,12246480000.0
122,108821100000,99380000000,204.0,208201100000,12347220000.0
123,108821100000,99380000000,204.0,208201100000,12447960000.0
124,111252000000,101600000000,208.0,212852000000,12548700000.0
125,110923500000,101300000000,208.0,212223500000,12649440000.0
126,108492600000,99080000000,204.0,207572600000,12752370000.0
127,108492600000,99080000000,204.0,207572600000,12857490000.0
128,108821100000,99380000000,204.0,208201100000,12962610000.0
129,108821100000,99380000000,204.0,208201100000,13063350000.0
130,108821100000,99380000000,204.0,208201100000,13164090000.0
131,110923500000,101300000000,208.0,212223500000,13264830000.0
132,110923500000,101300000000,208.0,212223500000,13367760000.0
133,108492600000,99080000000,204.0,207572600000,13470690000.0
134,113376300000,103540000000,204.0,216916300000,13575810000.0
135,108821100000,99380000000,204.0,208201100000,13676550000.0
136,108821100000,99380000000,204.0,208201100000,13777290000.0
137,108492600000,99080000000,204.0,207572600000,13878030000.0
138,108492600000,99080000000,204.0,207572600000,13983150000.0
139,108821100000,99380000000,204.0,208201100000,14088270000.0
140,108821100000,99380000000,204.0,208201100000,14189010000.0
141,111252000000,101600000000,208.0,212852000000,14289750000.0
142,110923500000,101300000000,208.0,212223500000,14390490000.0
143,108492600000,99080000000,204.0,207572600000,14493420000.0
144,108492600000,99080000000,204.0,207572600000,14598540000.0
145,108821100000,99380000000,204.0,208201100000,14703660000.0
146,108821100000,99380000000,204.0,208201100000,14804400000.0
147,108821100000,99380000000,204.0,208201100000,14905140000.0
148,110923500000,101300000000,208.0,212223500000,15005880000.0
149,110923500000,101300000000,208.0,212223500000,15108810000.0
150,108821100000,99380000000,204.0,208201100000,15211740000.0
151,108821100000,99380000000,204.0,208201100000,15312480000.0
152,108821100000,99380000000,204.0,208201100000,15413220000.0
153,108492600000,99080000000,204.0,207572600000,15513960000.0
154,108492600000,99080000000,204.0,207572600000,15619080000.0
155,113726700000,103860000000,204.0,217586700000,15724200000.0
156,114055200000,104160000000,204.0,218215200000,15824940000.0
157,114055200000,104160000000,204.0,218215200000,15925680000.0
158,108821100000,99380000000,204.0,208201100000,16026420000.0
159,113047800000,103240000000,204.0,216287800000,16127160000.0
160,108492600000,99080000000,204.0,207572600000,16227900000.0
161,108492600000,99080000000,204.0,207572600000,16333020000.0
162,108821100000,99380000000,204.0,208201100000,16438140000.0
163,114055200000,104160000000,204.0,218215200000,16538880000.0
164,114055200000,104160000000,204.0,218215200000,16639620000.0
165,113726700000,103860000000,204.0,217586700000,16740360000.0
166,108492600000,99080000000,204.0,207572600000,16841100000.0
167,113047800000,103240000000,204.0,216287800000,16946220000.0
168,113376300000,103540000000,204.0,216916300000,17046960000.0
169,108821100000,99380000000,204.0,208201100000,17147700000.0
170,108821100000,99380000000,204.0,208201100000,17248440000.0
171,108821100000,99380000000,204.0,208201100000,17349180000.0
172,108492600000,99080000000,204.0,207572600000,17449920000.0
173,108492600000,99080000000,204.0,207572600000,17555040000.0
174,113726700000,103860000000,204.0,217586700000,17660160000.0
175,114055200000,104160000000,204.0,218215200000,17760900000.0
176,114055200000,104160000000,204.0,218215200000,17861640000.0
177,108821100000,99380000000,204.0,208201100000,17962380000.0
178,108492600000,99080000000,204.0,207572600000,18063120000.0
179,108492600000,99080000000,204.0,207572600000,18168240000.0
180,113726700000,103860000000,204.0,217586700000,18273360000.0
181,114055200000,104160000000,204.0,218215200000,18374100000.0
182,114055200000,104160000000,204.0,218215200000,18474840000.0
183,108821100000,99380000000,204.0,208201100000,18575580000.0
184,113047800000,103240000000,204.0,216287800000,18676320000.0
185,113047800000,103240000000,204.0,216287800000,18777060000.0
186,108492600000,99080000000,204.0,207572600000,18877800000.0
187,108821100000,99380000000,204.0,208201100000,18982920000.0
188,108821100000,99380000000,204.0,208201100000,19083660000.0
189,108821100000,99380000000,204.0,208201100000,19184400000.0
190,108821100000,99380000000,204.0,208201100000,19285140000.0
191,113726700000,103860000000,204.0,217586700000,19385880000.0
192,113726700000,103860000000,204.0,217586700000,19486620000.0
193,113726700000,103860000000,204.0,217586700000,19587360000.0
194,108821100000,99380000000,204.0,208201100000,19688100000.0
195,108821100000,99380000000,204.0,208201100000,19788840000.0
196,108821100000,99380000000,204.0,208201100000,19889580000.0
197,114055200000,104160000000,204.0,218215200000,19990320000.0
198,113726700000,103860000000,204.0,217586700000,20091060000.0
199,113726700000,103860000000,204.0,217586700000,20191800000.0
200,113726700000,103860000000,204.0,217586700000,20292540000.0
201,113376300000,103540000000,204.0,216916300000,20393280000.0
202,108821100000,99380000000,204.0,208201100000,20494020000.0
203,108821100000,99380000000,204.0,208201100000,20594760000.0
204,108821100000,99380000000,204.0,208201100000,20695500000.0
205,108492600000,99080000000,204.0,207572600000,20796240000.0
206,108492600000,99080000000,204.0,207572600000,20901360000.0
207,113726700000,103860000000,204.0,217586700000,21006480000.0
208,114055200000,104160000000,204.0,218215200000,21107220000.0
209,114055200000,104160000000,204.0,218215200000,21207960000.0
210,108821100000,99380000000,204.0,208201100000,21308700000.0
211,108492600000,99080000000,204.0,207572600000,21409440000.0
212,108492600000,99080000000,204.0,207572600000,21514560000.0
213,113726700000,103860000000,204.0,217586700000,21619680000.0
214,114055200000,104160000000,204.0,218215200000,21720420000.0
215,111252000000,101600000000,208.0,212852000000,21821160000.0
216,113376300000,103540000000,204.0,216916300000,21921900000.0
217,113726700000,103860000000,204.0,217586700000,22022640000.0
218,113726700000,103860000000,204.0,217586700000,22123380000.0
219,108492600000,99080000000,204.0,207572600000,22224120000.0
220,108821100000,99380000000,204.0,208201100000,22329240000.0
221,108821100000,99380000000,204.0,208201100000,22429980000.0
222,108821100000,99380000000,204.0,208201100000,22530720000.0
223,108821100000,99380000000,204.0,208201100000,22631460000.0
224,108492600000,99080000000,204.0,207572600000,22732200000.0
225,108492600000,99080000000,204.0,207572600000,22837320000.0
226,113726700000,103860000000,204.0,217586700000,22942440000.0
227,114055200000,104160000000,204.0,218215200000,23043180000.0
228,114055200000,104160000000,204.0,218215200000,23143920000.0
229,108821100000,99380000000,204.0,208201100000,23244660000.0
230,108492600000,99080000000,204.0,207572600000,23345400000.0
231,108492600000,99080000000,204.0,207572600000,23450520000.0
232,113726700000,103860000000,204.0,217586700000,23555640000.0
233,114055200000,104160000000,204.0,218215200000,23656380000.0
234,114055200000,104160000000,204.0,218215200000,23757120000.0
235,108821100000,99380000000,204.0,208201100000,23857860000.0
236,113047800000,103240000000,204.0,216287800000,23958600000.0
237,113047800000,103240000000,204.0,216287800000,24059340000.0
238,108492600000,99080000000,204.0,207572600000,24160080000.0
239,108821100000,99380000000,204.0,208201100000,24265200000.0
240,108821100000,99380000000,204.0,208201100000,24365940000.0
241,108821100000,99380000000,204.0,208201100000,24466680000.0
242,108821100000,99380000000,204.0,208201100000,24567420000.0
243,113726700000,103860000000,204.0,217586700000,24668160000.0
244,113726700000,103860000000,204.0,217586700000,24768900000.0
245,114055200000,104160000000,204.0,218215200000,24869640000.0
246,108821100000,99380000000,204.0,208201100000,24970380000.0
247,108821100000,99380000000,204.0,208201100000,25071120000.0
248,108492600000,99080000000,204.0,207572600000,25171860000.0
249,113726700000,103860000000,204.0,217586700000,25276980000.0
250,113726700000,103860000000,204.0,217586700000,25377720000.0
