iteration_id,cable_loss_cost,cable_initial_cost,cable_crossing_count,cable_cost,cumulative_penalty
1,22675772.65909091,67911300,212.0,90587072.6590909,0.0
2,22675772.65909091,67911300,212.0,90587072.6590909,0.0
3,22675772.65909091,67911300,212.0,90587072.6590909,0.0
4,22675772.65909091,67911300,212.0,90587072.6590909,0.0
5,22675772.65909091,67911300,212.0,90587072.6590909,0.0
6,22675772.65909091,67911300,212.0,90587072.6590909,0.0
7,22675772.65909091,67911300,212.0,90587072.6590909,0.0
8,22675772.65909091,67911300,212.0,90587072.6590909,0.0
9,22675772.65909091,67911300,212.0,90587072.6590909,0.0
10,22675772.65909091,67911300,212.0,90587072.6590909,0.0
11,22675772.65909091,67911300,212.0,90587072.6590909,0.0
12,22675772.65909091,67911300,212.0,90587072.6590909,0.0
13,22675772.65909091,67911300,212.0,90587072.6590909,0.0
14,22675772.65909091,67911300,212.0,90587072.6590909,0.0
15,22675772.65909091,67911300,212.0,90587072.6590909,0.0
16,22675772.65909091,67911300,212.0,90587072.6590909,0.0
17,22675772.65909091,67911300,212.0,90587072.6590909,0.0
18,22675772.65909091,67911300,212.0,90587072.6590909,0.0
19,22675772.65909091,67911300,212.0,90587072.6590909,0.0
20,22675772.65909091,67911300,212.0,90587072.6590909,0.0
21,22675772.65909091,67911300,212.0,90587072.6590909,0.0
22,22675772.65909091,67911300,212.0,90587072.6590909,0.0
23,22675772.65909091,67911300,212.0,90587072.6590909,0.0
24,22675772.65909091,67911300,212.0,90587072.6590909,0.0
25,22675772.65909091,67911300,212.0,90587072.6590909,0.0
26,22675772.65909091,67911300,212.0,90587072.6590909,0.0
27,22675772.65909091,67911300,212.0,90587072.6590909,0.0
28,22675772.65909091,67911300,212.0,90587072.6590909,0.0
29,22675772.65909091,67911300,212.0,90587072.6590909,0.0
