iteration_id,cable_loss_cost,cable_initial_cost,cable_crossing_count,cable_cost
1,186412800000,1702400,0.0,186414502400
2,186412800000,1702400,0.0,186414502400
3,186412800000,1702400,0.0,186414502400
4,186412800000,1702400,0.0,186414502400
5,186412800000,1702400,0.0,186414502400
6,186412800000,1702400,0.0,186414502400
7,186412800000,1702400,0.0,186414502400
8,186412800000,1702400,0.0,186414502400
9,186412800000,1702400,0.0,186414502400
10,186412800000,1702400,0.0,186414502400
