iteration_id,cable_loss_cost,cable_initial_cost,cable_crossing_count,cable_cost
1,111624300000,101940000000,208.0,213564300000
2,111624300000,101940000000,208.0,213564300000
3,107331900000,98020000000,204.0,205351900000
4,111624300000,101940000000,208.0,213564300000
5,107331900000,98020000000,204.0,205351900000
6,111624300000,101940000000,208.0,213564300000
7,107331900000,98020000000,204.0,205351900000
8,111624300000,101940000000,208.0,213564300000
9,107331900000,98020000000,204.0,205351900000
