iteration_id,cable_loss_cost,cable_initial_cost,cable_crossing_count,cable_cost,cumulative_penalty
1,22675772.65909091,67911300,212.0,90587072.6590909,0.0
2,30579674.05785124,93642300,248.0,124221974.05785124,174105.0
3,30579674.05785124,93642300,248.0,124221974.05785124,351495.0
4,30579674.05785124,93642300,248.0,124221974.05785124,528885.0
5,30579674.05785124,93642300,248.0,124221974.05785124,706275.0
6,30579674.05785124,93642300,248.0,124221974.05785124,883665.0
7,30579674.05785124,93642300,248.0,124221974.05785124,1061055.0
8,30579674.05785124,93642300,248.0,124221974.05785124,1238445.0
9,30579674.05785124,93642300,248.0,124221974.05785124,1415835.0
10,30579674.05785124,93642300,248.0,124221974.05785124,1593225.0
11,30579674.05785124,93642300,248.0,124221974.05785124,1770615.0
12,30579674.05785124,93642300,248.0,124221974.05785124,1948005.0
13,30579674.05785124,93642300,248.0,124221974.05785124,2125395.0
14,30579674.05785124,93642300,248.0,124221974.05785124,2302785.0
15,30579674.05785124,93642300,248.0,124221974.05785124,2480175.0
16,30579674.05785124,93642300,248.0,124221974.05785124,2657565.0
17,30579674.05785124,93642300,248.0,124221974.05785124,2834955.0
18,30579674.05785124,93642300,248.0,124221974.05785124,3012345.0
19,30579674.05785124,93642300,248.0,124221974.05785124,3189735.0
20,30579674.05785124,93642300,248.0,124221974.05785124,3367125.0
21,30579674.05785124,93642300,248.0,124221974.05785124,3544515.0
22,30579674.05785124,93642300,248.0,124221974.05785124,3721905.0
23,30579674.05785124,93642300,248.0,124221974.05785124,3899295.0
24,30579674.05785124,93642300,248.0,124221974.05785124,4076685.0
25,30579674.05785124,93642300,248.0,124221974.05785124,4254075.0
26,30579674.05785124,93642300,248.0,124221974.05785124,4431465.0
27,30579674.05785124,93642300,248.0,124221974.05785124,4608855.0
28,30579674.05785124,93642300,248.0,124221974.05785124,4786245.0
29,30579674.05785124,93642300,248.0,124221974.05785124,4963635.0
