iteration_id,cable_loss_cost,cable_initial_cost,cable_crossing_count,cable_cost,cumulative_penalty
1,22675772.65909091,67911300,212.0,90587072.6590909,0.0
2,22675772.65909091,67911300,212.0,90587072.6590909,1741050.0
3,21788073.353305787,65590200,216.0,87378273.35330579,3482100.0
4,21788073.353305787,65590200,216.0,87378273.35330579,5256000.0
5,21788073.353305787,65590200,216.0,87378273.35330579,7029900.0
6,21848848.56818182,65590200,216.0,87439048.56818181,8803800.0
7,21253802.0392562,66276000,228.0,87529802.0392562,10577700.0
