iteration_id,cable_loss_cost,cable_initial_cost,cable_crossing_count,cable_cost,cumulative_penalty
1,27476561.70247934,80489700,20.0,107966261.70247933,0.0
2,27476561.70247934,80489700,20.0,107966261.70247933,2540400.0
3,27476561.70247934,80489700,20.0,107966261.70247933,5080800.0
4,27476561.70247934,80489700,20.0,107966261.70247933,7621200.0
5,28291815.44628099,81524700,20.0,109816515.44628099,10161600.0
6,28291815.44628099,81524700,20.0,109816515.44628099,12680100.0
7,28116360.247933887,80904600,20.0,109020960.2479339,15198600.0
8,28116360.24793388,80904600,20.0,109020960.24793388,17739000.0
9,27986104.115702476,81319500,24.0,109305604.11570248,20279400.0
10,28496775.91735537,81963900,24.0,110460675.91735537,22776000.0
11,27784320.04958678,81134100,20.0,108918420.04958677,25272600.0
12,27784320.04958678,81134100,20.0,108918420.04958677,27769200.0
13,27476561.70247934,80489700,20.0,107966261.70247933,30309600.0
14,27714933.24793389,80904600,20.0,108619533.2479339,32850000.0
