iteration_id,cable_loss_cost,cable_initial_cost,cable_crossing_count,cable_cost
1,113047800000,103240000000,204.0,216287800000,0.0
2,113047800000,103240000000,204.0,216287800000,10.073999999999998
3,113047800000,103240000000,204.0,216287800000,20.147999999999996
4,113047800000,103240000000,204.0,216287800000,30.222
5,113047800000,103240000000,204.0,216287800000,40.29599999999999
6,113047800000,103240000000,204.0,216287800000,50.36999999999999
7,110923500000,101300000000,208.0,212223500000,60.44399999999999
8,110923500000,101300000000,208.0,212223500000,70.737
9,110923500000,101300000000,208.0,212223500000,81.02999999999999
