iteration_id,cable_loss_cost,cable_initial_cost,cable_crossing_count,cable_cost
1,11162430000,101940000000,208.0,113102430000
2,11162430000,101940000000,208.0,113102430000
3,10733190000,98020000000,204.0,108753190000
4,11162430000,101940000000,208.0,113102430000
5,10733190000,98020000000,204.0,108753190000
6,11162430000,101940000000,208.0,113102430000
7,10733190000,98020000000,204.0,108753190000
8,11162430000,101940000000,208.0,113102430000
9,10733190000,98020000000,204.0,108753190000
