iteration_id,cable_loss_cost,cable_initial_cost,cable_crossing_count,cable_cost,cumulative_penalty
1,26119101.514462814,61631100,192.0,87750201.51446281,0.0
2,26119101.514462814,61631100,192.0,87750201.51446281,2003850.0
3,27029829.756198343,60009300,184.0,87039129.75619835,4007700.0
4,27029829.756198343,60009300,184.0,87039129.75619835,6011550.0
5,27371505.049586777,58383900,184.0,85755405.04958677,8015400.0
6,27371505.049586777,58383900,184.0,85755405.04958677,10019250.0
7,27371505.049586777,58383900,184.0,85755405.04958677,12023100.0
8,27371505.049586777,58383900,184.0,85755405.04958677,14026950.0
9,27371505.049586777,58383900,184.0,85755405.04958677,16030800.0
10,27371505.049586777,58383900,184.0,85755405.04958677,18034650.0
11,22829616.5392562,60320700,216.0,83150316.5392562,20038500.0
12,22829616.5392562,60320700,216.0,83150316.5392562,21943800.0
13,22599644.820247933,60320700,216.0,82920344.82024793,23849100.0
14,23799425.91322314,66065400,212.0,89864825.91322315,25754400.0
15,23799425.91322314,66065400,212.0,89864825.91322315,27561150.0
16,27371505.04958678,58383900,184.0,85755405.04958677,29367900.0
17,23344829.42355372,61728300,216.0,85073129.42355372,31371750.0
18,23344829.42355372,61728300,216.0,85073129.42355372,33277050.0
19,25594518.23553719,59507100,188.0,85101618.23553719,35182350.0
20,22682443.10950413,63890100,220.0,86572543.10950413,37186200.0
21,22423248.46487603,64289700,216.0,86712948.46487603,38992950.0
22,26126936.646694213,61025400,188.0,87152336.64669421,40799700.0
23,21141463.1838843,67449600,224.0,88591063.1838843,42803550.0
24,21454074.371900823,68059800,228.0,89513874.37190083,44577450.0
25,25594518.23553719,59507100,188.0,85101618.23553719,46351350.0
26,25594518.23553719,59507100,188.0,85101618.23553719,48355200.0
27,25594518.23553719,59507100,188.0,85101618.23553719,50359050.0
28,20958661.078512393,67453200,220.0,88411861.0785124,52362900.0
29,20958661.078512393,67453200,220.0,88411861.0785124,54136800.0
