iteration_id,cable_loss_cost,cable_initial_cost,cable_crossing_count,cable_cost,cumulative_penalty
1,75585908863636.38,814935600,212.0,75586723799236.38,0.0
2,75585908863636.38,814935600,212.0,75586723799236.38,348210000.0
3,71093060516528.94,776520000,216.0,71093837036528.94,696420000.0
4,73003844566115.72,809524800,220.0,73004654090915.72,1044630000.0
