iteration_id,cable_loss_cost,cable_initial_cost,cable_crossing_count,cable_cost,cumulative_penalty
1,31900564.413223147,82869300,196.0,114769864.41322315,0.0
2,31900564.413223147,82869300,196.0,114769864.41322315,2540400.0
