iteration_id,cable_loss_cost,cable_initial_cost,cable_crossing_count,cable_cost,cumulative_penalty
1,75585908.86363636,814935600,212.0,890521508.8636364,0.0
2,75585908.86363636,814935600,212.0,890521508.8636364,34821000.0
3,72626911.17768595,787082400,216.0,859709311.177686,69642000.0
4,70988415.61983472,792396000,216.0,863384415.6198347,105120000.0
5,72626911.17768595,787082400,216.0,859709311.177686,139941000.0
6,70846006.79752065,795312000,228.0,866158006.7975206,175419000.0
7,70846006.79752065,795312000,228.0,866158006.7975206,210897000.0
8,71175647.04545456,769802400,216.0,840978047.0454545,246375000.0
9,74350816.7355372,769802400,216.0,844153216.7355372,281853000.0
10,71175647.04545456,769802400,216.0,840978047.0454545,317331000.0
11,71175647.04545456,769802400,216.0,840978047.0454545,352809000.0
12,69993142.0661157,801208800,220.0,871201942.0661157,388287000.0
13,69993142.0661157,801208800,220.0,871201942.0661157,423108000.0
14,70626305.45454545,790797600,220.0,861423905.4545455,457929000.0
15,70466426.4049587,835218000,224.0,905684426.4049587,492750000.0
16,69372154.89669423,843015600,228.0,912387754.8966942,527571000.0
17,71346467.04545455,856234800,224.0,927581267.0454545,562392000.0
18,72263565.74380165,868546800,228.0,940810365.7438016,597213000.0
19,73276838.92561984,860760000,236.0,934036838.9256198,632034000.0
