iteration_id,cable_loss_cost,cable_initial_cost,cable_crossing_count,cable_cost,cumulative_penalty
1,113047800000,103240000000,204.0,216287800000,0.0
2,113047800000,103240000000,204.0,216287800000,100740000000.0
3,122202000000,111600000000,228.0,233802000000,201480000000.0
4,139108800000,127040000000,224.0,266148800000,310980000000.0
5,151175700000,138060000000,248.0,289235700000,409530000000.0
6,146051100000,133380000000,248.0,279431100000,512460000000.0
7,157373400000,143720000000,252.0,301093400000,621960000000.0
8,166374300000,151940000000,284.0,318314300000,722700000000.0
9,169703100000,154980000000,300.0,324683100000,823440000000.0
