iteration_id,cable_loss_cost,cable_initial_cost,cable_crossing_count,cable_cost
1,111624300000,101940000,208.0,111726240000
2,111624300000,101940000,208.0,111726240000
3,107331900000,98020000,204.0,107429920000
4,111624300000,101940000,208.0,111726240000
5,107331900000,98020000,204.0,107429920000
6,111624300000,101940000,208.0,111726240000
7,107331900000,98020000,204.0,107429920000
8,111624300000,101940000,208.0,111726240000
9,107331900000,98020000,204.0,107429920000
10,111624300000,101940000,208.0,111726240000
