iteration_id,cable_loss_cost,cable_initial_cost,cable_crossing_count,cable_cost
1,104397300000,9534,152.0,104397309534
2,100280100000,9158,152.0,100280109158
3,104397300000,9534,152.0,104397309534
4,100280100000,9158,152.0,100280109158
5,104397300000,9534,152.0,104397309534
6,100280100000,9158,152.0,100280109158
7,104397300000,9534,152.0,104397309534
8,100280100000,9158,152.0,100280109158
9,104397300000,9534,152.0,104397309534
10,100280100000,9158,152.0,100280109158
