iteration_id,cable_loss_cost,cable_initial_cost,cable_crossing_count,cable_cost,cumulative_penalty
1,22675772.65909091,67911300,212.0,90587072.6590909,0.0
2,22675772.65909091,67911300,212.0,90587072.6590909,3482100.0
3,21788073.353305787,65590200,216.0,87378273.35330579,6964200.0
4,21187891.636363637,65899800,220.0,87087691.63636364,10512000.0
5,21187891.636363637,65899800,220.0,87087691.63636364,13994100.0
6,21582665.83264463,64150200,216.0,85732865.83264463,17476200.0
7,21582665.83264463,64150200,216.0,85732865.83264463,21024000.0
8,21965687.330578517,68990400,224.0,90956087.33057852,24571800.0
9,21352694.11363636,64150200,216.0,85502894.11363636,28053900.0
10,22072096.896694217,65134800,216.0,87206896.89669421,31601700.0
11,21396952.022727277,66792600,216.0,88189552.02272728,35149500.0
12,23566595.429752067,66665700,224.0,90232295.42975207,38697300.0
13,21968810.795454547,67796100,224.0,89764910.79545455,42179400.0
14,21538619.683884293,70250400,228.0,91789019.6838843,45661500.0
15,22074055.679752063,72426600,228.0,94500655.67975207,49143600.0
16,20291298.396694217,72684900,224.0,92976198.39669421,52625700.0
17,20804870.13842975,70313400,224.0,91118270.13842975,56107800.0
18,20807040.681818184,69583500,228.0,90390540.68181819,59589900.0
19,22116725.386363637,65654100,216.0,87770825.38636364,63072000.0
