iteration_id,cable_loss_cost,cable_initial_cost,cable_crossing_count,cable_cost
1,113047800000,103240000000,204.0,216287800000
2,113047800000,103240000000,204.0,216287800000
3,113047800000,103240000000,204.0,216287800000
4,113047800000,103240000000,204.0,216287800000
5,113047800000,103240000000,204.0,216287800000
6,113047800000,103240000000,204.0,216287800000
7,113047800000,103240000000,204.0,216287800000
8,113047800000,103240000000,204.0,216287800000
9,113047800000,103240000000,204.0,216287800000
